Aula6/Parte1/simulation/qsim/ShiftRegister_Demo.msim.vcd
$comment
	File created using the following command:
		vcd file ShiftRegister_Demo.msim.vcd -direction
$end
$date
	Tue May  3 09:56:40 2022
$end
$version
	ModelSim Version 2020.1
$end
$timescale
	1ps
$end

$scope module shiftregister4_vhd_vec_tst $end
$var wire 1 ! clk $end
$var wire 1 " dataOut [3] $end
$var wire 1 # dataOut [2] $end
$var wire 1 $ dataOut [1] $end
$var wire 1 % dataOut [0] $end
$var wire 1 & sin $end

$scope module i1 $end
$var wire 1 ' gnd $end
$var wire 1 ( vcc $end
$var wire 1 ) unknown $end
$var wire 1 * devoe $end
$var wire 1 + devclrn $end
$var wire 1 , devpor $end
$var wire 1 - ww_devoe $end
$var wire 1 . ww_devclrn $end
$var wire 1 / ww_devpor $end
$var wire 1 0 ww_clk $end
$var wire 1 1 ww_sin $end
$var wire 1 2 ww_dataOut [3] $end
$var wire 1 3 ww_dataOut [2] $end
$var wire 1 4 ww_dataOut [1] $end
$var wire 1 5 ww_dataOut [0] $end
$var wire 1 6 \dataOut[0]~output_o\ $end
$var wire 1 7 \dataOut[1]~output_o\ $end
$var wire 1 8 \dataOut[2]~output_o\ $end
$var wire 1 9 \dataOut[3]~output_o\ $end
$var wire 1 : \clk~input_o\ $end
$var wire 1 ; \sin~input_o\ $end
$var wire 1 < s_shiftReg [3] $end
$var wire 1 = s_shiftReg [2] $end
$var wire 1 > s_shiftReg [1] $end
$var wire 1 ? s_shiftReg [0] $end
$upscope $end
$upscope $end
$enddefinitions $end
#0
$dumpvars
0!
0&
0'
1(
x)
1*
1+
1,
1-
1.
1/
00
01
06
07
08
09
0:
0;
02
03
04
05
0<
0=
0>
0?
0"
0#
0$
0%
$end
#20000
1&
11
1;
#30000
1!
10
1:
1?
16
15
1%
#60000
0!
00
0:
#90000
1!
10
1:
1>
17
14
1$
#120000
0!
00
0:
#150000
1!
10
1:
1=
18
13
1#
#180000
0!
00
0:
#210000
1!
10
1:
1<
19
12
1"
#240000
0!
00
0:
#270000
1!
10
1:
#300000
0!
00
0:
#310000
0&
01
0;
#330000
1!
10
1:
0?
06
05
0%
#360000
0!
00
0:
#390000
1!
10
1:
0>
07
04
0$
#420000
0!
00
0:
#450000
1!
10
1:
0=
08
03
0#
#480000
0!
00
0:
#510000
1!
10
1:
0<
09
02
0"
#540000
0!
00
0:
#570000
1!
10
1:
#600000
0!
00
0:
#630000
1!
10
1:
#660000
0!
00
0:
#690000
1!
10
1:
#720000
0!
00
0:
#750000
1!
10
1:
#780000
0!
00
0:
#810000
1!
10
1:
#840000
0!
00
0:
#870000
1!
10
1:
#900000
0!
00
0:
#930000
1!
10
1:
#960000
0!
00
0:
#990000
1!
10
1:
