Aula2/Parte4/simulation/qsim/PEnc4_2Demo.msim.vcd
$comment
	File created using the following command:
		vcd file PEnc4_2Demo.msim.vcd -direction
$end
$date
	Mon Mar 28 18:12:26 2022
$end
$version
	ModelSim Version 2020.1
$end
$timescale
	1ps
$end

$scope module penc4_2_vhd_vec_tst $end
$var wire 1 ! decodedIn [3] $end
$var wire 1 " decodedIn [2] $end
$var wire 1 # decodedIn [1] $end
$var wire 1 $ decodedIn [0] $end
$var wire 1 % encodedOut [1] $end
$var wire 1 & encodedOut [0] $end
$var wire 1 ' validOut $end

$scope module i1 $end
$var wire 1 ( gnd $end
$var wire 1 ) vcc $end
$var wire 1 * unknown $end
$var wire 1 + devoe $end
$var wire 1 , devclrn $end
$var wire 1 - devpor $end
$var wire 1 . ww_devoe $end
$var wire 1 / ww_devclrn $end
$var wire 1 0 ww_devpor $end
$var wire 1 1 ww_decodedIn [3] $end
$var wire 1 2 ww_decodedIn [2] $end
$var wire 1 3 ww_decodedIn [1] $end
$var wire 1 4 ww_decodedIn [0] $end
$var wire 1 5 ww_encodedOut [1] $end
$var wire 1 6 ww_encodedOut [0] $end
$var wire 1 7 ww_validOut $end
$var wire 1 8 \encodedOut[0]~output_o\ $end
$var wire 1 9 \encodedOut[1]~output_o\ $end
$var wire 1 : \validOut~output_o\ $end
$var wire 1 ; \decodedIn[3]~input_o\ $end
$var wire 1 < \decodedIn[1]~input_o\ $end
$var wire 1 = \decodedIn[2]~input_o\ $end
$var wire 1 > \encodedOut[0]~0_combout\ $end
$var wire 1 ? \Equal0~0_combout\ $end
$var wire 1 @ \decodedIn[0]~input_o\ $end
$var wire 1 A \Equal0~1_combout\ $end
$var wire 1 B \ALT_INV_Equal0~0_combout\ $end
$var wire 1 C \ALT_INV_Equal0~1_combout\ $end
$upscope $end
$upscope $end
$enddefinitions $end
#0
$dumpvars
0'
0(
1)
x*
1+
1,
1-
1.
1/
10
07
08
09
0:
0;
0<
0=
0>
1?
0@
1A
0B
0C
0!
0"
0#
0$
01
02
03
04
05
06
0%
0&
$end
#40000
1$
14
1@
0A
1C
1:
17
1'
#80000
0$
1#
04
13
1<
0@
1>
18
16
1&
#120000
1$
14
1@
#160000
0$
0#
1"
04
03
12
1=
0<
0@
0>
0?
1B
08
19
06
15
0&
1%
#200000
1$
14
1@
#240000
0$
1#
04
13
1<
0@
#280000
1$
14
1@
#320000
0$
0#
0"
1!
04
03
02
11
1;
0=
0<
0@
1>
18
16
1&
#360000
1$
14
1@
#400000
0$
1#
04
13
1<
0@
#440000
1$
14
1@
#480000
0$
0#
1"
04
03
12
1=
0<
0@
#520000
1$
14
1@
#560000
0$
1#
04
13
1<
0@
#600000
1$
14
1@
#640000
0$
0#
0"
0!
04
03
02
01
0;
0=
0<
0@
0>
1?
1A
0C
0B
08
09
0:
06
05
07
0&
0%
0'
#680000
1$
14
1@
0A
1C
1:
17
1'
#720000
0$
1#
04
13
1<
0@
1>
18
16
1&
#760000
1$
14
1@
#800000
0$
0#
1"
04
03
12
1=
0<
0@
0>
0?
1B
08
19
06
15
0&
1%
#840000
1$
14
1@
#880000
0$
1#
04
13
1<
0@
#920000
1$
14
1@
#960000
0$
0#
0"
1!
04
03
02
11
1;
0=
0<
0@
1>
18
16
1&
