Aula3/Parte5/simulation/qsim/ALUDemo.msim.vcd
$comment
	File created using the following command:
		vcd file ALUDemo.msim.vcd -direction
$end
$date
	Tue Mar 29 10:50:22 2022
$end
$version
	ModelSim Version 2020.1
$end
$timescale
	1ps
$end

$scope module bin2bcd_vhd_vec_tst $end
$var wire 1 ! bcd [4] $end
$var wire 1 " bcd [3] $end
$var wire 1 # bcd [2] $end
$var wire 1 $ bcd [1] $end
$var wire 1 % bcd [0] $end
$var wire 1 & bin [3] $end
$var wire 1 ' bin [2] $end
$var wire 1 ( bin [1] $end
$var wire 1 ) bin [0] $end

$scope module i1 $end
$var wire 1 * gnd $end
$var wire 1 + vcc $end
$var wire 1 , unknown $end
$var wire 1 - devoe $end
$var wire 1 . devclrn $end
$var wire 1 / devpor $end
$var wire 1 0 ww_devoe $end
$var wire 1 1 ww_devclrn $end
$var wire 1 2 ww_devpor $end
$var wire 1 3 ww_bin [3] $end
$var wire 1 4 ww_bin [2] $end
$var wire 1 5 ww_bin [1] $end
$var wire 1 6 ww_bin [0] $end
$var wire 1 7 ww_bcd [4] $end
$var wire 1 8 ww_bcd [3] $end
$var wire 1 9 ww_bcd [2] $end
$var wire 1 : ww_bcd [1] $end
$var wire 1 ; ww_bcd [0] $end
$var wire 1 < \bcd[0]~output_o\ $end
$var wire 1 = \bcd[1]~output_o\ $end
$var wire 1 > \bcd[2]~output_o\ $end
$var wire 1 ? \bcd[3]~output_o\ $end
$var wire 1 @ \bcd[4]~output_o\ $end
$var wire 1 A \bin[0]~input_o\ $end
$var wire 1 B \bin[2]~input_o\ $end
$var wire 1 C \bin[1]~input_o\ $end
$var wire 1 D \bin[3]~input_o\ $end
$var wire 1 E \Mux3~0_combout\ $end
$var wire 1 F \Mux2~0_combout\ $end
$var wire 1 G \Mux1~0_combout\ $end
$var wire 1 H \Mux0~0_combout\ $end
$var wire 1 I \ALT_INV_Mux2~0_combout\ $end
$var wire 1 J \ALT_INV_Mux0~0_combout\ $end
$upscope $end
$upscope $end
$enddefinitions $end
#0
$dumpvars
0*
1+
x,
1-
1.
1/
10
11
12
0<
0=
0>
0?
0@
0A
0B
0C
0D
0E
1F
0G
1H
0I
0J
0&
0'
0(
0)
03
04
05
06
07
08
09
0:
0;
0!
0"
0#
0$
0%
$end
#60000
1)
16
1A
1<
1;
1%
#120000
0)
1(
06
15
1C
0A
1E
0<
0;
1=
0%
1:
1$
#180000
1)
16
1A
1<
1;
1%
#240000
0)
0(
1'
06
05
14
1B
0C
0A
0E
0F
1I
0<
0;
0=
0%
1>
0:
19
0$
1#
#300000
1)
16
1A
1<
1;
1%
#360000
0)
1(
06
15
1C
0A
1E
0<
0;
1=
0%
1:
1$
#420000
1)
16
1A
1<
1;
1%
#480000
0)
0(
0'
1&
06
05
04
13
1D
0B
0C
0A
0E
1F
1G
0I
0<
0;
1?
0=
0%
0>
18
0:
09
0$
1"
0#
#540000
1)
16
1A
1<
1;
1%
#600000
0)
1(
06
15
1C
0A
0G
0H
1J
0<
0;
0?
0%
1@
08
17
0"
1!
#660000
1)
16
1A
1<
1;
1%
#720000
0)
0(
1'
06
05
14
1B
0C
0A
1E
0<
0;
1=
0%
1:
1$
#780000
1)
16
1A
1<
1;
1%
#840000
0)
1(
06
15
1C
0A
0E
0F
1I
0<
0;
0=
0%
1>
0:
19
0$
1#
#900000
1)
16
1A
1<
1;
1%
#960000
0)
0(
0'
0&
06
05
04
03
0D
0B
0C
0A
1F
1H
0J
0I
0<
0;
0%
0>
0@
09
07
0#
0!
